<?xml version="1.0" encoding="UTF-8" standalone="no"?>
<!-- Created with Inkscape (http://www.inkscape.org/) -->

<svg
   xmlns:dc="http://purl.org/dc/elements/1.1/"
   xmlns:cc="http://creativecommons.org/ns#"
   xmlns:rdf="http://www.w3.org/1999/02/22-rdf-syntax-ns#"
   xmlns:svg="http://www.w3.org/2000/svg"
   xmlns="http://www.w3.org/2000/svg"
   xmlns:xlink="http://www.w3.org/1999/xlink"
   xmlns:sodipodi="http://sodipodi.sourceforge.net/DTD/sodipodi-0.dtd"
   xmlns:inkscape="http://www.inkscape.org/namespaces/inkscape"
   width="210mm"
   height="297mm"
   id="svg6518"
   version="1.1"
   inkscape:version="0.48.3.1 r9886"
   sodipodi:docname="Nouveau document 11">
  <defs
     id="defs6520">
    <radialGradient
       inkscape:collect="always"
       xlink:href="#linearGradient3308"
       id="radialGradient4258"
       gradientUnits="userSpaceOnUse"
       gradientTransform="matrix(11.60017,-8.917595e-8,7.23316e-8,9.4090262,-757.86736,-1543.8267)"
       cx="72.080688"
       cy="237.3118"
       fx="72.080688"
       fy="237.3118"
       r="89.823624" />
    <linearGradient
       id="linearGradient3308">
      <stop
         id="stop3310"
         offset="0"
         style="stop-color:#212121;stop-opacity:1;" />
      <stop
         id="stop3312"
         offset="1"
         style="stop-color:#b8b8b8;stop-opacity:1;" />
    </linearGradient>
    <radialGradient
       inkscape:collect="always"
       xlink:href="#linearGradient3605"
       id="radialGradient4260"
       gradientUnits="userSpaceOnUse"
       gradientTransform="translate(3.136538,4.704807)"
       cx="150.5538"
       cy="160.69841"
       fx="150.5538"
       fy="160.69841"
       r="312.59076" />
    <linearGradient
       id="linearGradient3605">
      <stop
         style="stop-color:#ffffff;stop-opacity:1;"
         offset="0"
         id="stop3607" />
      <stop
         style="stop-color:#ffffff;stop-opacity:0;"
         offset="1"
         id="stop3609" />
    </linearGradient>
    <linearGradient
       inkscape:collect="always"
       xlink:href="#linearGradient3160"
       id="linearGradient4262"
       gradientUnits="userSpaceOnUse"
       gradientTransform="matrix(3.4800508,0,0,3.4800508,-164.72229,-124.26474)"
       x1="160.79538"
       y1="229.54926"
       x2="160.79538"
       y2="62.100281" />
    <linearGradient
       id="linearGradient3160">
      <stop
         style="stop-color:#4b4b4b;stop-opacity:1;"
         offset="0"
         id="stop3162" />
      <stop
         style="stop-color:#ffffff;stop-opacity:1;"
         offset="1"
         id="stop3164" />
    </linearGradient>
    <filter
       color-interpolation-filters="sRGB"
       inkscape:collect="always"
       id="filter4131"
       x="-0.27940416"
       width="1.5588083"
       y="-0.31575745"
       height="1.6315149">
      <feGaussianBlur
         inkscape:collect="always"
         stdDeviation="46.887951"
         id="feGaussianBlur4133" />
    </filter>
    <linearGradient
       inkscape:collect="always"
       xlink:href="#linearGradient3571"
       id="linearGradient3636"
       gradientUnits="userSpaceOnUse"
       x1="499.9826"
       y1="373.98297"
       x2="600.9422"
       y2="174.81282" />
    <linearGradient
       id="linearGradient3571">
      <stop
         style="stop-color:#26761e;stop-opacity:1;"
         offset="0"
         id="stop3573" />
      <stop
         style="stop-color:#2cb134;stop-opacity:0.99607843;"
         offset="1"
         id="stop3575" />
    </linearGradient>
    <radialGradient
       inkscape:collect="always"
       xlink:href="#linearGradient3593"
       id="radialGradient3638"
       gradientUnits="userSpaceOnUse"
       gradientTransform="matrix(0.5716748,0.6230185,-0.666331,0.6114179,361.64298,-271.53663)"
       cx="536.92163"
       cy="257.29892"
       fx="536.92163"
       fy="257.29892"
       r="201.37689" />
    <linearGradient
       id="linearGradient3593">
      <stop
         style="stop-color:#ffffff;stop-opacity:1;"
         offset="0"
         id="stop3595" />
      <stop
         style="stop-color:#ffffff;stop-opacity:0;"
         offset="1"
         id="stop3597" />
    </linearGradient>
  </defs>
  <sodipodi:namedview
     id="base"
     pagecolor="#ffffff"
     bordercolor="#666666"
     borderopacity="1.0"
     inkscape:pageopacity="0.0"
     inkscape:pageshadow="2"
     inkscape:zoom="0.35"
     inkscape:cx="375"
     inkscape:cy="520"
     inkscape:document-units="px"
     inkscape:current-layer="layer1"
     showgrid="false"
     inkscape:window-width="1920"
     inkscape:window-height="1058"
     inkscape:window-x="1280"
     inkscape:window-y="0"
     inkscape:window-maximized="1" />
  <metadata
     id="metadata6523">
    <rdf:RDF>
      <cc:Work
         rdf:about="">
        <dc:format>image/svg+xml</dc:format>
        <dc:type
           rdf:resource="http://purl.org/dc/dcmitype/StillImage" />
        <dc:title></dc:title>
      </cc:Work>
    </rdf:RDF>
  </metadata>
  <g
     inkscape:label="Calque 1"
     inkscape:groupmode="layer"
     id="layer1">
    <g
       id="g2689"
       transform="translate(-12.191957,182.72551)">
      <g
         transform="translate(-33.517997,10.380509)"
         id="g4248">
        <rect
           style="fill:url(#radialGradient4258);fill-opacity:1;fill-rule:nonzero;stroke:#2b2b2b;stroke-width:17.4002533;stroke-linecap:butt;stroke-linejoin:miter;stroke-miterlimit:4;stroke-opacity:1;stroke-dasharray:none;stroke-dashoffset:0;marker:none;visibility:visible;display:inline;overflow:visible;enable-background:accumulate"
           id="rect4250"
           width="625.18152"
           height="625.18152"
           x="78.280815"
           y="63.864677"
           ry="104.00832"
           rx="116.4919" />
        <rect
           style="opacity:0.58499995;fill:url(#radialGradient4260);fill-opacity:1;fill-rule:nonzero;stroke:none;stroke-width:17.4002533;marker:none;visibility:visible;display:inline;overflow:visible;enable-background:accumulate"
           id="rect4252"
           width="618.90857"
           height="618.90845"
           x="84.181297"
           y="70.801857"
           ry="114.9862"
           rx="114.92363" />
        <rect
           style="opacity:0.81000001;fill:url(#linearGradient4262);fill-opacity:1;fill-rule:nonzero;stroke:none;stroke-width:5;marker:none;visibility:visible;display:inline;overflow:visible;enable-background:accumulate"
           id="rect4254"
           width="584.05304"
           height="432.73627"
           x="97.699615"
           y="91.847397"
           ry="111.91522" />
        <path
           inkscape:connector-curvature="0"
           style="font-size:432.16552734px;font-style:normal;font-variant:normal;font-weight:normal;font-stretch:normal;fill:#eeeeee;fill-opacity:1;stroke:#000000;stroke-width:10;stroke-linecap:butt;stroke-linejoin:miter;stroke-miterlimit:4;stroke-opacity:0.58536545;stroke-dasharray:none;font-family:Franklin Gothic Demi;-inkscape-font-specification:Franklin Gothic Demi"
           d="m 343.95169,399.15619 -57.39698,19.20267 c -7.7375,-22.78975 -24.12658,-34.18473 -49.16727,-34.18497 -26.72908,2.4e-4 -40.09356,8.65198 -40.09348,25.95525 -8e-5,6.89348 2.49696,12.73164 7.49115,17.51453 4.99401,4.78327 16.28347,8.93329 33.86844,12.45008 29.40173,5.90869 50.92558,11.88753 64.57161,17.93655 13.64565,6.04936 25.14613,15.79136 34.50149,29.22604 9.35492,13.43496 14.03249,28.45241 14.03272,45.05241 -2.3e-4,26.02566 -10.02359,48.53426 -30.07011,67.52587 -20.04693,18.99165 -49.76531,28.48747 -89.15524,28.48747 -29.54265,0 -54.68898,-6.71741 -75.43905,-20.15225 -20.75016,-13.4348 -34.43117,-33.37601 -41.04307,-59.82369 l 62.46143,-14.13823 c 7.03387,26.86973 26.58822,40.30455 58.66309,40.3045 15.47454,5e-5 27.0102,-2.98937 34.60701,-8.96828 7.59649,-5.97879 11.39482,-13.11823 11.39499,-21.41836 -1.7e-4,-8.44064 -3.4468,-14.98221 -10.3399,-19.6247 -6.89342,-4.6423 -20.18756,-9.00334 -39.88246,-13.08314 -36.71727,-7.59654 -62.88352,-17.9716 -78.49882,-31.1252 -15.61538,-13.15332 -23.42305,-32.39114 -23.42304,-57.71351 -1e-5,-25.60333 9.31996,-47.19752 27.95993,-64.78263 18.63989,-17.58458 43.9269,-26.377 75.86109,-26.37729 56.55274,2.9e-4 92.91819,22.57923 109.09647,67.73688 l 0,0 z m 226.13886,128.72118 -137.16191,0 c -0.14076,3.79842 -0.2111,7.10437 -0.21102,9.91786 -8e-5,15.19339 4.04444,26.65871 12.13356,34.39599 8.08893,7.73738 17.76059,11.60605 29.01502,11.60601 20.96101,4e-5 33.55175,-11.18392 37.77228,-33.55192 l 56.97494,4.22037 c -15.89691,49.23763 -48.18268,73.85641 -96.85741,73.85641 -21.24261,0 -39.28466,-4.25553 -54.1262,-12.76661 -14.84167,-8.51105 -27.08072,-20.92595 -36.71719,-37.24473 -9.63652,-16.31869 -14.45477,-35.87303 -14.45475,-58.6631 -2e-5,-33.90347 9.67165,-61.26548 29.01502,-82.08612 19.34328,-20.82027 44.20825,-31.2305 74.59498,-31.23071 27.43223,2.1e-4 50.96075,9.67188 70.58562,29.01501 19.6245,19.34352 29.43684,50.18733 29.43706,92.53154 l 0,0 z m -137.37293,-36.50617 75.75558,0 c -1.96966,-29.26105 -13.99769,-43.89164 -36.08413,-43.89181 -23.63415,1.7e-4 -36.85795,14.63076 -39.67145,43.89181 l 0,0 z"
           id="path4256"
           sodipodi:nodetypes="cccsscssssssccsssscssscccccsssccsssssccccccscc" />
      </g>
      <g
         transform="translate(-39.912864,-36.75803)"
         id="g3632">
        <path
           inkscape:connector-curvature="0"
           style="fill:#ffffff;fill-opacity:1;fill-rule:evenodd;stroke:none;filter:url(#filter4131)"
           d="M 374.20536,300.55408 489.66114,433.07738 732.84587,180.86804 693.63915,111.8642 499.29087,317.42901 418.1169,242.52813 374.20536,300.55408 z"
           id="path4005"
           sodipodi:nodetypes="ccccccc" />
        <path
           inkscape:connector-curvature="0"
           style="fill:url(#linearGradient3636);fill-opacity:1;fill-rule:evenodd;stroke:#000000;stroke-width:10;stroke-linecap:butt;stroke-linejoin:miter;stroke-miterlimit:4;stroke-opacity:1;stroke-dasharray:none"
           d="M 373.53938,306.93493 491.15956,432.39645 776.29316,137.17437 737.08644,68.170533 499.00091,317.9128 l -81.54999,-76.84517 -43.91154,65.8673 z"
           id="path3569"
           sodipodi:nodetypes="ccccccc" />
        <path
           inkscape:connector-curvature="0"
           style="fill:url(#radialGradient3638);fill-opacity:1;fill-rule:evenodd;stroke:none"
           d="M 378.13061,297.20318 494.18252,381.44034 766.57739,117.90461 739.29317,67.976784 499.63937,322.42386 419.65765,248.71523 378.13061,297.20318 z"
           id="path3579"
           sodipodi:nodetypes="ccccccc" />
      </g>
    </g>
  </g>
</svg>
